MPL: BL_FIELD,MPL: BL_FIELD
X,Y
-0.648958,-400.0
-0.63749,-388.9531
-0.625482,-377.9063
-0.612934,-366.8594
-0.599848,-355.8125
-0.586221,-344.7656
-0.572056,-333.7188
-0.557351,-322.6719
-0.542106,-311.625
-0.526323,-300.5781
-0.51,-289.5313
-0.493137,-278.4844
-0.475735,-267.4375
-0.457794,-256.3906
-0.439313,-245.3438
-0.420293,-234.2969
-0.400734,-223.25
0.0,0.0
0.400734,223.25
0.420293,234.2969
0.439313,245.3438
0.457794,256.3906
0.475735,267.4375
0.493137,278.4844
0.51,289.5313
0.526323,300.5781
0.542106,311.625
0.557351,322.6719
0.572056,333.7188
0.586221,344.7656
0.599848,355.8125
0.612934,366.8594
0.625482,377.9063
0.63749,388.9531
0.648958,400.0
